C:\Users\Mario\Dropbox\Faks\V. semestar\Programiranje u Javi\Labovi\java_vjezba1\src\main\java\com\mariovrdoljak\CalculateCRC32ForByteArray.java
C:\Users\Mario\Dropbox\Faks\V. semestar\Programiranje u Javi\Labovi\java_vjezba1\src\main\java\com\mariovrdoljak\Checksum.java
C:\Users\Mario\Dropbox\Faks\V. semestar\Programiranje u Javi\Labovi\java_vjezba1\src\main\java\com\mariovrdoljak\CRC32.java
